<svg xmlns="http://www.w3.org/2000/svg" width="26" height="24">
    <path fill="#676767" fill-rule="evenodd" d="M.001 16.788v-1.985h25.998v1.985H.001zm7.297-7.591V7.212h18.686v1.985H7.298zM.001 0h25.998v1.986H.001V0zm25.983 23.999H7.298v-1.985h18.686v1.985z"/>
</svg>
